<svg width="70" height="124" viewBox="0 0 70 124" fill="none" xmlns="http://www.w3.org/2000/svg">
<rect x="14.9331" y="42.9902" width="46.3562" height="81.0093" fill="#7822E7"/>
<path d="M0.171203 38.7705C-1.5327 54.031 9.90183 60.406 15.8321 61.686C18.4542 61.2164 19.0806 58.3421 22.8483 57.5984C33.8735 35.6738 52.416 43.8491 59.1815 47.0696C60.3872 46.6887 60.7298 51.2729 61.6872 50.9095C71.61 47.1439 70.5826 36.8299 68.9539 32.0817C68.7033 32.3707 68.0268 32.9983 67.3252 33.1965C67.3252 32.8249 65.1953 26.5076 63.1907 25.6406C63.316 26.136 61.6872 30.5953 60.3091 31.0907C60.2089 27.9197 57.0934 21.2639 55.5482 18.3324C54.9635 19.4472 53.4183 21.8254 51.9149 22.42C52.1654 17.3414 50.7873 13.1299 49.785 12.139C49.785 12.2629 48.7827 13.6254 47.6551 14.1209C47.9057 10.1571 45.3999 2.47735 39.6367 0C41.1402 5.94564 36.254 13.8732 34.1241 14.4925C34.525 12.5106 33.957 10.9416 33.6229 10.4049C33.4977 11.0242 32.6457 12.6345 30.2402 14.1209C27.2333 15.9789 23.7253 20.8097 23.6 23.5348C22.0965 21.6768 19.8414 16.846 19.8414 15.1118C17.5361 16.5982 13.9529 22.0897 12.4494 24.6496C12.2406 24.3193 11.823 23.3118 11.823 21.9245C9.56782 24.7735 8.8161 35.9216 10.3195 38.275C8.31495 37.5318 3.17818 33.4442 2.17588 31.9578C1.47428 33.0478 1.46592 37.7796 1.54945 40.0092C1.42416 39.8027 0.97311 39.266 0.171203 38.7705Z" fill="#EB5757"/>
<path d="M4.6811 38.3995C4.58087 51.1827 12.6577 57.3513 16.7087 58.8377C19.4655 58.3374 22.2625 56.8993 25.3397 55.317L25.4788 55.2455C26.7317 49.0521 48.2811 36.9131 59.8075 48.6805C61.0505 48.3944 60.4548 49.3216 60.9351 49.0521C64.6436 46.9712 65.5707 43.1478 65.5707 41.4962C65.3201 41.9091 64.4431 42.8092 62.9396 43.1065C63.2403 42.7101 63.0649 39.3079 62.9396 37.6563C62.4385 38.4408 61.1856 40.1089 60.1833 40.5053C60.3086 39.7621 59.6822 34.6835 58.5546 33.8164C58.5546 34.411 57.3017 35.5506 56.6753 36.0461C56.2994 33.899 55.0466 29.382 53.042 28.4901C52.3404 30.472 49.8263 32.9494 48.6569 33.9403C48.991 31.7933 49.5339 27.301 49.0328 26.5083C48.9326 27.0037 47.3205 28.1185 46.527 28.614C46.2765 26.3018 45.5999 21.5288 44.8983 20.9342C44.5976 21.8261 43.2696 23.04 42.6431 23.5354C42.2673 21.4297 41.29 16.8218 40.388 15.2363C39.5861 19.101 36.2117 24.5264 34.6248 26.756C33.5807 25.1457 31.5678 21.3306 31.8685 18.9524C29.6634 19.9433 28.1098 24.3199 27.6087 26.3844C27.5252 26.3018 27.2328 25.8146 26.7317 24.5264C24.6269 26.3101 24.5183 30.8849 24.7271 32.9494C22.7225 31.463 18.7133 27.3753 18.7133 22.9161C16.8089 25.6907 16.4999 31.9171 16.5834 34.6835C15.9152 34.5597 14.3533 33.7174 13.4513 31.3391C12.9501 33.5687 13.9524 41.1246 15.4558 42.2394C14.7041 42.4872 7.1869 42.3633 4.6811 38.3995Z" fill="#F2994A"/>
<path d="M30.8667 118.045C30.8667 116.744 30.6075 115.455 30.1038 114.253C29.6001 113.051 28.8618 111.958 27.9311 111.038C27.0003 110.118 25.8954 109.388 24.6794 108.89C23.4633 108.392 22.16 108.136 20.8438 108.136L20.8438 118.045H30.8667Z" fill="#A66DEF"/>
<path d="M46.6528 118.045C46.6528 116.744 46.9121 115.455 47.4158 114.253C47.9195 113.051 48.6578 111.958 49.5885 111.038C50.5192 110.118 51.6241 109.388 52.8402 108.89C54.0562 108.392 55.3595 108.136 56.6758 108.136L56.6758 118.045H46.6528Z" fill="#A66DEF"/>
<path d="M21.2192 117.668V44.7926L39.3423 43.1162L56.2996 44.5494V117.668H21.2192Z" stroke="#A66DEF" stroke-width="1.25287"/>
<ellipse cx="38.7598" cy="49.7953" rx="3.63333" ry="3.59216" fill="#A66DEF"/>
<ellipse cx="38.7598" cy="104.297" rx="3.63333" ry="3.59216" fill="#A66DEF"/>
<ellipse cx="38.7602" cy="76.7972" rx="14.6586" ry="14.4925" fill="#A66DEF"/>
<path opacity="0.56" d="M41.7792 67.9351H38.3025L33.9716 70.6771V73.9574L37.9779 71.4459H38.0804V85.4297H41.7792V67.9351Z" fill="white"/>
<path d="M13.2004 46.0784C13.1001 52.3214 16.5831 57.5155 18.3371 59.3322L23.7246 56.3594L31.7429 47.9364L50.4107 44.592L52.1647 43.9727L51.6636 41.4953C51.413 40.587 50.6613 38.7455 49.659 38.6464C49.659 39.1419 48.2391 40.0915 47.5291 40.5044C47.6126 39.6786 47.5542 37.8289 46.6521 37.0361C46.4516 37.6307 45.3992 38.4399 44.8981 38.7703C44.7728 37.1187 44.3719 33.6421 43.7705 32.9485C43.7705 33.7412 42.5176 34.6001 41.8912 34.9304C41.5988 33.1136 40.8889 29.282 40.3877 28.4893C40.1372 30.4711 36.5038 36.7884 36.0027 37.4077C35.5015 37.4077 33.8728 33.3201 33.8728 31.4621C32.5698 32.0566 31.2418 35.2607 30.7406 36.7884C30.4901 36.6232 29.9639 36.169 29.8636 35.6736C29.7383 35.7974 27.7337 40.5044 28.2349 41.9908C27.6085 41.7431 24.2257 36.4168 23.8498 34.4349C22.5469 35.5249 22.2211 40.9173 22.2211 43.4772C21.8035 43.1469 20.7177 42.1642 19.7154 40.876C17.3099 42.957 17.7108 47.2758 18.2119 49.1751C17.4184 49.0925 15.3053 48.3576 13.2004 46.0784Z" fill="#F2C94C"/>
<path d="M15.5815 62.0584V58.6394C22.4076 58.3355 26.5763 52.1812 27.8074 49.1421C30.4818 45.0899 34.6844 45.723 39.9058 45.723C42.8377 45.723 43.0896 42.5572 49.9666 41.7974C55.4683 41.1896 60.2397 45.934 61.9378 48.3822V51.8012C59.6454 48.3822 53.5325 45.0898 52.3863 45.0898C51.2402 45.0898 49.2025 44.8366 44.6179 46.6094C40.2879 50.1551 36.0853 49.1421 34.9391 49.1421C33.7929 49.1421 29.845 48.8888 27.0432 53.4475C23.9868 59.931 18.1286 61.8896 15.5815 62.0584Z" fill="#494946"/>
</svg>
