<svg width="70" height="115" viewBox="0 0 70 115" fill="none" xmlns="http://www.w3.org/2000/svg">
<rect x="15.8667" y="32.9844" width="46.3562" height="82.0159" fill="#7822E7"/>
<path d="M0.171203 39.2523C-1.5327 54.7023 9.90183 61.1566 15.8321 62.4525C18.4542 61.9771 19.0806 59.067 22.8483 58.3141C33.8735 36.1171 52.416 44.3939 59.1815 47.6545C60.3872 47.2688 60.7298 51.91 61.6872 51.5421C71.61 47.7297 70.5826 37.2876 68.9539 32.4803C68.7033 32.7729 68.0268 33.4083 67.3252 33.609C67.3252 33.2327 65.1953 26.837 63.1907 25.9592C63.316 26.4608 61.6872 30.9754 60.3091 31.477C60.2089 28.2666 57.0934 21.5281 55.5482 18.5602C54.9635 19.6888 53.4183 22.0966 51.9149 22.6986C52.1654 17.5569 50.7873 13.2931 49.785 12.2898C49.785 12.4152 48.7827 13.7947 47.6551 14.2963C47.9057 10.2833 45.3999 2.50813 39.6367 0C41.1402 6.01952 36.254 14.0455 34.1241 14.6726C34.525 12.6661 33.957 11.0776 33.6229 10.5342C33.4977 11.1612 32.6457 12.7915 30.2402 14.2963C27.2333 16.1774 23.7253 21.0683 23.6 23.8272C22.0965 21.9461 19.8414 17.0553 19.8414 15.2996C17.5361 16.8045 13.9529 22.3642 12.4494 24.9559C12.2406 24.6215 11.823 23.6015 11.823 22.197C9.56782 25.0813 8.8161 36.3679 10.3195 38.7506C8.31495 37.9982 3.17818 33.8598 2.17588 32.3549C1.47428 33.4585 1.46592 38.249 1.54945 40.5063C1.42416 40.2973 0.97311 39.7539 0.171203 39.2523Z" fill="#EB5757"/>
<path d="M4.6811 38.8768C4.58087 51.8188 12.6577 58.064 16.7087 59.5689C19.4655 59.0624 22.2625 57.6064 25.3398 56.0045L25.4788 55.9321C26.7317 49.6618 48.2811 37.3719 59.8075 49.2855C61.0505 48.9959 60.4548 49.9346 60.9351 49.6618C64.6436 47.5549 65.5707 43.6841 65.5707 42.012C65.3201 42.43 64.4431 43.3413 62.9396 43.6423C63.2403 43.241 63.0649 39.7965 62.9396 38.1244C62.4385 38.9186 61.1856 40.6074 60.1833 41.0087C60.3086 40.2563 59.6822 35.1146 58.5546 34.2368C58.5546 34.8387 57.3017 35.9925 56.6753 36.4941C56.2994 34.3204 55.0466 29.7472 53.042 28.8443C52.3404 30.8508 49.8263 33.3589 48.6569 34.3622C48.991 32.1885 49.5339 27.6404 49.0328 26.8378C48.9326 27.3394 47.3205 28.4681 46.527 28.9697C46.2765 26.6288 45.5999 21.7964 44.8983 21.1945C44.5976 22.0974 43.2696 23.3264 42.6431 23.828C42.2673 21.6961 41.29 17.031 40.388 15.4258C39.5861 19.3385 36.2117 24.8313 34.6248 27.0886C33.5807 25.4583 31.5678 21.5958 31.8685 19.188C29.6634 20.1912 28.1098 24.6223 27.6087 26.7124C27.5252 26.6288 27.2328 26.1355 26.7317 24.8313C24.6269 26.6371 24.5183 31.2688 24.7271 33.3589C22.7225 31.854 18.7133 27.7156 18.7133 23.201C16.8089 26.0101 16.4999 32.3139 16.5834 35.1146C15.9152 34.9892 14.3533 34.1364 13.4513 31.7286C12.9501 33.986 13.9524 41.6357 15.4558 42.7644C14.7041 43.0152 7.1869 42.8898 4.6811 38.8768Z" fill="#F2994A"/>
<path d="M30.8667 109.718C30.8667 108.401 30.6075 107.096 30.1038 105.879C29.6001 104.662 28.8618 103.556 27.9311 102.624C27.0003 101.692 25.8954 100.953 24.6794 100.449C23.4633 99.945 22.16 99.6855 20.8438 99.6855L20.8438 109.718H30.8667Z" fill="#A66DEF"/>
<path d="M46.6528 109.718C46.6528 108.401 46.9121 107.096 47.4158 105.879C47.9195 104.662 48.6578 103.556 49.5885 102.624C50.5192 101.692 51.6241 100.953 52.8402 100.449C54.0562 99.945 55.3595 99.6855 56.6758 99.6855L56.6758 109.718H46.6528Z" fill="#A66DEF"/>
<path d="M21.2192 109.343V45.4258L52.5945 43.9528L56.2996 45.2702V109.343H21.2192Z" stroke="#A66DEF" stroke-width="1.25287"/>
<ellipse cx="38.7598" cy="40.6202" rx="3.63333" ry="3.63679" fill="#A66DEF"/>
<ellipse cx="38.7598" cy="95.7979" rx="3.63333" ry="3.63679" fill="#A66DEF"/>
<ellipse cx="38.7602" cy="67.9577" rx="14.6586" ry="14.6726" fill="#A66DEF"/>
<path opacity="0.56" d="M38.5908 76.6493C42.5203 76.6493 45.3307 74.4881 45.3221 71.4983C45.3307 69.32 43.9468 67.7653 41.3756 67.4407V67.3041C43.3318 66.9538 44.6815 65.57 44.6729 63.6052C44.6815 60.8461 42.264 58.6763 38.6421 58.6763C35.0543 58.6763 32.3549 60.7777 32.3037 63.8017H35.8487C35.8914 62.4691 37.113 61.6063 38.625 61.6063C40.1199 61.6063 41.1193 62.5118 41.1108 63.8273C41.1193 65.2027 39.949 66.1338 38.2662 66.1338H36.6346V68.8502H38.2662C40.248 68.8502 41.4866 69.8411 41.4781 71.2506C41.4866 72.643 40.2907 73.5997 38.5993 73.5997C36.9678 73.5997 35.7462 72.7455 35.6779 71.4642H31.9534C32.0132 74.5223 34.7468 76.6493 38.5908 76.6493Z" fill="white"/>
<path d="M13.2004 46.6515C13.1001 52.972 16.5831 58.2307 18.3371 60.07L23.7246 57.0602L31.7429 48.5326L50.4107 45.1466L52.1647 44.5196L51.6636 42.0114C51.413 41.0918 50.6613 39.2274 49.659 39.1271C49.659 39.6287 48.2391 40.5902 47.5291 41.0082C47.6126 40.1721 47.5542 38.2994 46.6521 37.4968C46.4516 38.0988 45.3992 38.9181 44.8981 39.2525C44.7728 37.5804 44.3719 34.0607 43.7705 33.3584C43.7705 34.161 42.5176 35.0305 41.8912 35.3649C41.5988 33.5256 40.8889 29.6464 40.3877 28.8438C40.1372 30.8503 36.5038 37.246 36.0027 37.873C35.5015 37.873 33.8728 33.7346 33.8728 31.8535C32.5698 32.4555 31.2418 35.6993 30.7406 37.246C30.4901 37.0788 29.9639 36.619 29.8636 36.1173C29.7383 36.2427 27.7337 41.0082 28.2349 42.5131C27.6085 42.2623 24.2257 36.8698 23.8498 34.8633C22.5469 35.9668 22.2211 41.4262 22.2211 44.0179C21.8035 43.6835 20.7177 42.6886 19.7154 41.3844C17.3099 43.4912 17.7108 47.8637 18.2119 49.7866C17.4184 49.703 15.3053 48.959 13.2004 46.6515Z" fill="#F2C94C"/>
<path d="M15.5815 62.8294V59.3679C22.4076 59.0602 24.4627 51.9856 27.8074 49.7525C30.4818 45.65 34.6844 46.291 39.9058 46.291C42.8377 46.291 43.0896 43.0858 49.9666 42.3166C55.4683 41.7012 60.2397 46.5046 61.9378 48.9832V52.4448C59.6454 48.9832 53.5325 45.6499 52.3863 45.6499C51.2402 45.6499 49.2025 45.3935 44.6179 47.1884C40.2879 50.7781 36.0853 49.7525 34.9391 49.7525C33.7929 49.7525 29.845 49.4961 27.0432 54.1115C23.9868 60.6755 18.1286 62.6584 15.5815 62.8294Z" fill="#494946"/>
</svg>
